jobband,role,skill,competency
l2,Jr.Design Engineer,Web Design,Analytical
l3,Sr.Design Engineer,Mobile and App Design,Analytical
l2,Jr.Developer,C,Logical
l3,Sr.Developer,JAVA,Logical
l2,Jr.Test Engineer,Test Case Execution,Logical
l3,Sr.Test Engineer,Test Case Preparation,Analytical
