course_id,skill,title,description,start,end,durationInHours,type,contenttype,actionflag
200,php,php course 1,php course description 1,,,1,course,course,append
201,php,php course 2,php course description 2,,,1,course,course,append
202,php,php course 3,php course description 3,,,1,course,course,append
203,php,php course 4,php course description 4,,,1,course,course,append
204,php,php course 5,php course description 5,,,1,course,course,append
205,php,php course 6,php course description 6,,,1,course,course,append
206,php,php course 7,php course description 7,,,1,course,course,append
207,php,php course 8,php course description 8,,,1,course,course,append
208,php,php course 9,php course description 9,,,1,course,course,append
209,php,php course 10,php course description 10,,,1,course,course,append
210,php,php course 11,php course description 11,,,1,course,course,append
211,php,php course 12,php course description 12,,,1,course,course,append
212,php,php course 13,php course description 13,,,1,course,course,append
213,php,php course 14,php course description 14,,,1,course,course,append
214,php,php course 15,php course description 15,,,1,course,course,append
215,php,php course 16,php course description 16,,,1,course,course,append
216,php,php course 17,php course description 17,,,1,course,course,append
217,php,php course 18,php course description 18,,,1,course,course,append
218,php,php course 19,php course description 19,,,1,course,course,append
219,php,php course 20,php course description 20,,,1,course,course,append
220,php,php course 21,php course description 21,,,1,course,course,append
221,php,php course 22,php course description 22,,,1,course,course,append
222,php,php course 23,php course description 23,,,1,course,course,append
223,php,php course 24,php course description 24,,,1,course,course,append
224,php,php course 25,php course description 25,,,1,course,course,append
225,php,php course 26,php course description 26,,,1,course,course,append
226,php,php course 27,php course description 27,,,1,course,course,append
227,php,php course 28,php course description 28,,,1,course,course,append
228,php,php course 29,php course description 29,,,1,course,course,append
229,php,php course 30,php course description 30,,,1,course,course,append
230,php,php course 31,php course description 31,,,1,course,course,append
231,php,php course 32,php course description 32,,,1,course,course,append
232,php,php course 33,php course description 33,,,1,course,course,append
233,php,php course 34,php course description 34,,,1,course,course,append
234,php,php course 35,php course description 35,,,1,course,course,append
235,php,php course 36,php course description 36,,,1,course,course,append
236,php,php course 37,php course description 37,,,1,course,course,append
237,php,php course 38,php course description 38,,,1,course,course,append
238,php,php course 39,php course description 39,,,1,course,course,append
239,php,php course 40,php course description 40,,,1,course,course,append
240,php,php course 41,php course description 41,,,1,course,course,append
241,php,php course 42,php course description 42,,,1,course,course,append
242,php,php course 43,php course description 43,,,1,course,course,append
243,php,php course 44,php course description 44,,,1,course,course,append
244,php,php course 45,php course description 45,,,1,course,course,append
245,php,php course 46,php course description 46,,,1,course,course,append
246,php,php course 47,php course description 47,,,1,course,course,append
247,php,php course 48,php course description 48,,,1,course,course,append
248,php,php course 49,php course description 49,,,1,course,course,append
249,php,php course 50,php course description 50,,,1,course,course,append
250,php,php course 51,php course description 51,,,1,course,course,append
251,php,php course 52,php course description 52,,,1,course,course,append
252,php,php course 53,php course description 53,,,1,course,course,append
253,php,php course 54,php course description 54,,,1,course,course,append
254,php,php course 55,php course description 55,,,1,course,course,append
255,php,php course 56,php course description 56,,,1,course,course,append
256,php,php course 57,php course description 57,,,1,course,course,append
257,php,php course 58,php course description 58,,,1,course,course,append
258,php,php course 59,php course description 59,,,1,course,course,append
259,php,php course 60,php course description 60,,,1,course,course,append
260,php,php course 61,php course description 61,,,1,course,course,append
261,php,php course 62,php course description 62,,,1,course,course,append
262,php,php course 63,php course description 63,,,1,course,course,append
263,php,php course 64,php course description 64,,,1,course,course,append
264,php,php course 65,php course description 65,,,1,course,course,append
265,php,php course 66,php course description 66,,,1,course,course,append
266,php,php course 67,php course description 67,,,1,course,course,append
267,php,php course 68,php course description 68,,,1,course,course,append
268,php,php course 69,php course description 69,,,1,course,course,append
269,php,php course 70,php course description 70,,,1,course,course,append
270,php,php course 71,php course description 71,,,1,course,course,append
271,php,php course 72,php course description 72,,,1,course,course,append
272,php,php course 73,php course description 73,,,1,course,course,append
273,php,php course 74,php course description 74,,,1,course,course,append
274,php,php course 75,php course description 75,,,1,course,course,append
275,php,php course 76,php course description 76,,,1,course,course,append
276,php,php course 77,php course description 77,,,1,course,course,append
277,php,php course 78,php course description 78,,,1,course,course,append
278,php,php course 79,php course description 79,,,1,course,course,append
279,php,php course 80,php course description 80,,,1,course,course,append
280,php,php course 81,php course description 81,,,1,course,course,append
281,php,php course 82,php course description 82,,,1,course,course,append
282,php,php course 83,php course description 83,,,1,course,course,append
283,php,php course 84,php course description 84,,,1,course,course,append
284,php,php course 85,php course description 85,,,1,course,course,append
285,php,php course 86,php course description 86,,,1,course,course,append
286,php,php course 87,php course description 87,,,1,course,course,append
287,php,php course 88,php course description 88,,,1,course,course,append
288,php,php course 89,php course description 89,,,1,course,course,append
289,php,php course 90,php course description 90,,,1,course,course,append
290,php,php course 91,php course description 91,,,1,course,course,append
291,php,php course 92,php course description 92,,,1,course,course,append
292,php,php course 93,php course description 93,,,1,course,course,append
293,php,php course 94,php course description 94,,,1,course,course,append
294,php,php course 95,php course description 95,,,1,course,course,append
295,php,php course 96,php course description 96,,,1,course,course,append
296,php,php course 97,php course description 97,,,1,course,course,append
297,php,php course 98,php course description 98,,,1,course,course,append
298,php,php course 99,php course description 99,,,1,course,course,append
299,php,php course 100,php course description 100,,,1,course,course,append
300,php,php course 101,php course description 101,,,1,course,course,append
