email,username,lastname,age,location,skill,competency,password,designation,id,parentid
aaa1@sifycorp.com,aaa1,a1,41,chennai,php,no,pal123,Senior Manager,2,1
bbb1@sifycorp.com,bbb1,b1,43,chennai,php,no,pal123,Assistant Manager - PHP,3,2
ccc1@sifycorp.com,ccc1,c1,24,chennai,php,no,pal123,Development Lead - PHP,4,3
prasanth.gopalakrishnan@sifycorp.com,Prasanth,Gopalakrishnan,30,chennai,php,no,pal123,Senior Developer - PHP,5,4
gayatri.kolusu@sifycorp.com,Gayatri,Kolusu,24,chennai,php,no,pal123,Senior Developer - PHP,6,4
fff1@sifycorp.com,fff1,f1,24,chennai,php,no,pal123,Senior Developer - PHP,7,4
fff2@sifycorp.com,fff2,f2,24,chennai,php,no,pal123,Senior Developer - PHP,8,4
fff3@sifycorp.com,fff3,f3,24,chennai,php,no,pal123,Senior Developer - PHP,9,4
fff4@sifycorp.com,fff4,f4,24,chennai,php,no,pal123,Senior Developer - PHP,10,4
fff5@sifycorp.com,fff5,f5,24,chennai,php,no,pal123,Senior Developer - PHP,11,4
fff6@sifycorp.com,fff6,f6,24,chennai,php,no,pal123,Senior Developer - PHP,12,4
fff7@sifycorp.com,fff7,f7,24,chennai,php,no,pal123,Senior Developer - PHP,13,4
fff8@sifycorp.com,fff8,f8,24,chennai,php,no,pal123,Senior Developer - PHP,14,4
fff9@sifycorp.com,fff9,f9,24,chennai,php,no,pal123,Senior Developer - PHP,15,4
fff10@sifycorp.com,fff10,f10,24,chennai,php,no,pal123,Senior Developer - PHP,16,4
fff11@sifycorp.com,fff11,f11,24,chennai,php,no,pal123,Senior Developer - PHP,17,4
fff12@sifycorp.com,fff12,f12,24,chennai,php,no,pal123,Senior Developer - PHP,18,4
fff13@sifycorp.com,fff13,f13,24,chennai,php,no,pal123,Senior Developer - PHP,19,4
fff14@sifycorp.com,fff14,f14,24,chennai,php,no,pal123,Senior Developer - PHP,20,4
fff15@sifycorp.com,fff15,f15,24,chennai,php,no,pal123,Senior Developer - PHP,21,4
fff16@sifycorp.com,fff16,f16,24,chennai,php,no,pal123,Senior Developer - PHP,22,4
fff17@sifycorp.com,fff17,f17,24,chennai,php,no,pal123,Senior Developer - PHP,23,4
fff18@sifycorp.com,fff18,f18,24,chennai,php,no,pal123,Senior Developer - PHP,24,4
fff19@sifycorp.com,fff19,f19,24,chennai,php,no,pal123,Senior Developer - PHP,25,4
fff20@sifycorp.com,fff20,f20,24,chennai,php,no,pal123,Senior Developer - PHP,26,4
ggg1@sifycorp.com,ggg1,g1,43,chennai,java,no,pal123,Assistant Manager - JAVA,27,2
hhh1@sifycorp.com,hhh1,h1,28,chennai,java,no,pal123,Development Lead - JAVA,28,27
iii1@sifycorp.com,iii1,i1,30,chennai,java,no,pal123,Senior Developer - JAVA,29,28
jjj1@sifycorp.com,jjj1,j1,30,chennai,java,no,pal123,Senior Developer - JAVA,30,28
kkk1@sifycorp.com,kkk1,k1,29,chennai,java,no,pal123,Senior Developer - JAVA,31,28
kkk2@sifycorp.com,kkk2,k2,29,chennai,java,no,pal123,Senior Developer - JAVA,32,28
kkk3@sifycorp.com,kkk3,k3,29,chennai,java,no,pal123,Senior Developer - JAVA,33,28
kkk4@sifycorp.com,kkk4,k4,29,chennai,java,no,pal123,Senior Developer - JAVA,34,28
kkk5@sifycorp.com,kkk5,k5,29,chennai,java,no,pal123,Senior Developer - JAVA,35,28
kkk6@sifycorp.com,kkk6,k6,29,chennai,java,no,pal123,Senior Developer - JAVA,36,28
kkk7@sifycorp.com,kkk7,k7,29,chennai,java,no,pal123,Senior Developer - JAVA,37,28
kkk8@sifycorp.com,kkk8,k8,29,chennai,java,no,pal123,Senior Developer - JAVA,38,28
kkk9@sifycorp.com,kkk9,k9,29,chennai,java,no,pal123,Senior Developer - JAVA,39,28
kkk10@sifycorp.com,kkk10,k10,29,chennai,java,no,pal123,Senior Developer - JAVA,40,28
kkk11@sifycorp.com,kkk11,k11,29,chennai,java,no,pal123,Senior Developer - JAVA,41,28
kkk12@sifycorp.com,kkk12,k12,29,chennai,java,no,pal123,Senior Developer - JAVA,42,28
kkk13@sifycorp.com,kkk13,k13,29,chennai,java,no,pal123,Senior Developer - JAVA,43,28
kkk14@sifycorp.com,kkk14,k14,29,chennai,java,no,pal123,Senior Developer - JAVA,44,28
kkk15@sifycorp.com,kkk15,k15,29,chennai,java,no,pal123,Senior Developer - JAVA,45,28
kkk16@sifycorp.com,kkk16,k16,29,chennai,java,no,pal123,Senior Developer - JAVA,46,28
kkk17@sifycorp.com,kkk17,k17,29,chennai,java,no,pal123,Senior Developer - JAVA,47,28
kkk18@sifycorp.com,kkk18,k18,29,chennai,java,no,pal123,Senior Developer - JAVA,48,28
kkk19@sifycorp.com,kkk19,k19,29,chennai,java,no,pal123,Senior Developer - JAVA,49,28
kkk20@sifycorp.com,kkk20,k20,29,chennai,java,no,pal123,Senior Developer - JAVA,50,28
lll1@sifycorp.com,lll1,l1,40,chennai,dotnet,no,pal123,Assistant Manager - DOTNET,51,2
mmm1@sifycorp.com,mmm1,m1,30,chennai,dotnet,no,pal123,Development Lead - DOTNET,52,51
nnn1@sifycorp.com,nnn1,n1,25,chennai,dotnet,no,pal123,Senior Developer - DOTNET,53,52
ooo1@sifycorp.com,ooo1,o1,25,chennai,dotnet,no,pal123,Senior Developer - DOTNET,54,52
ppp1@sifycorp.com,ppp1,p1,24,chennai,dotnet,no,pal123,Senior Developer - DOTNET,55,52
ppp2@sifycorp.com,ppp2,p2,24,chennai,dotnet,no,pal123,Senior Developer - DOTNET,56,52
ppp3@sifycorp.com,ppp3,p3,24,chennai,dotnet,no,pal123,Senior Developer - DOTNET,57,52
ppp4@sifycorp.com,ppp4,p4,24,chennai,dotnet,no,pal123,Senior Developer - DOTNET,58,52
ppp5@sifycorp.com,ppp5,p5,24,chennai,dotnet,no,pal123,Senior Developer - DOTNET,59,52
ppp6@sifycorp.com,ppp6,p6,24,chennai,dotnet,no,pal123,Senior Developer - DOTNET,60,52
ppp7@sifycorp.com,ppp7,p7,24,chennai,dotnet,no,pal123,Senior Developer - DOTNET,61,52
ppp8@sifycorp.com,ppp8,p8,24,chennai,dotnet,no,pal123,Senior Developer - DOTNET,62,52
ppp9@sifycorp.com,ppp9,p9,24,chennai,dotnet,no,pal123,Senior Developer - DOTNET,63,52
ppp10@sifycorp.com,ppp10,p10,24,chennai,dotnet,no,pal123,Senior Developer - DOTNET,64,52
ppp11@sifycorp.com,ppp11,p11,24,chennai,dotnet,no,pal123,Senior Developer - DOTNET,65,52
ppp12@sifycorp.com,ppp12,p12,24,chennai,dotnet,no,pal123,Senior Developer - DOTNET,66,52
ppp13@sifycorp.com,ppp13,p13,24,chennai,dotnet,no,pal123,Senior Developer - DOTNET,67,52
ppp14@sifycorp.com,ppp14,p14,24,chennai,dotnet,no,pal123,Senior Developer - DOTNET,68,52
ppp15@sifycorp.com,ppp15,p15,24,chennai,dotnet,no,pal123,Senior Developer - DOTNET,69,52
ppp16@sifycorp.com,ppp16,p16,24,chennai,dotnet,no,pal123,Senior Developer - DOTNET,70,52
ppp17@sifycorp.com,ppp17,p17,24,chennai,dotnet,no,pal123,Senior Developer - DOTNET,71,52
ppp18@sifycorp.com,ppp18,p18,24,chennai,dotnet,no,pal123,Senior Developer - DOTNET,72,52
ppp19@sifycorp.com,ppp19,p19,24,chennai,dotnet,no,pal123,Senior Developer - DOTNET,73,52
ppp20@sifycorp.com,ppp20,p20,24,chennai,dotnet,no,pal123,Senior Developer - DOTNET,74,52
